 Volume in drive C has no label.
 Volume Serial Number is BA95-D996

 Directory of C:\Users\a\Downloads\game_opener_cmd\games\Game_shortcuts

16/04/2023  19:35    <DIR>          .
16/04/2023  19:35    <DIR>          ..
23/06/2022  20:27               210 Mortal Kombat 11.url
16/04/2023  18:52                58 test_game.txt
               2 File(s)            268 bytes

     Total Files Listed:
               2 File(s)            268 bytes
               2 Dir(s)  109,125,988,352 bytes free
